<svg width="15" height="13" viewBox="0 0 15 13" fill="none" xmlns="http://www.w3.org/2000/svg">
    <path opacity="0.2" fill-rule="evenodd" clip-rule="evenodd" d="M0.95829 11.2917L2.41662 12.75L8.66663 6.5L2.41662 0.249998L0.95829 1.70833L5.74996 6.5L0.95829 11.2917Z" fill="black"/>
    <path opacity="0.2" fill-rule="evenodd" clip-rule="evenodd" d="M6.95829 11.2917L8.41662 12.75L14.6666 6.5L8.41662 0.249998L6.95829 1.70833L11.75 6.5L6.95829 11.2917Z" fill="black"/>
</svg>
